Chapter 5 Advanced R | Conducting Empirical Research in Economics
…
data_training <- data_split %>% training()

data_test <- data_split %>% testing()

data_recipe <- recipe(finance ~ ., data = data_training) %>% 
  step_YeoJohnson(all_numeric(), -all_outcomes()) %>% 
  step_normalize(all_numeric(), -all_outcomes()) %>% 
  step_dummy(all_nominal(), -all_outcomes())

data_recipe %>% 
  prep() %>% 
  bake(new_data = data_training)

## # A tibble: 4,947 × 23
##        age     ag2 hh_size hh_size2 educ_com lndis finance        mobile_own_Yes
##      <dbl>   <dbl>   <dbl>    <dbl>    <dbl> <dbl> <fct>                   <dbl>
##  1  0.0338  0.0341   0.448    0.457  -1.03   0.795 Access to Fin…              0
##  2  0.834   0.834    2.30     2.26   -1.03   0.781 Access to Fin…              0
##  3  0.988   0.988    0.448    0.457  -1.03   0.781 Access to Fin…              0
##  4 -0.526  -0.525    0.448    0.457  -1.03   0.809 Access to Fin…              0
##  5 -0.526  -0.525   -0.459   -0.466  -0.395  0.500 Access to Fin…              0
##  6 -1.12   -1.12    -1.04    -1.06   -0.395  0.600 Access to Fin…              1
##  7  0.613   0.613    1.77     1.76   -0.395  0.500 Access to Fin…              0
##  8  0.670   0.670    1.48     1.48   -0.395  0.500 Access to Fin…              1
##  9  0.307   0.307    1.48     1.48   -0.975  0.208 Access to Fin…              1
## 10 -1.01   -1.01    -1.04    -1.06   -0.0734 0.809 Access to Fin…              1
## # … with 4,937 more rows, and 15 more variables: educ_Primary <dbl>,
## #   educ_secondary <dbl>, educ_certificate <dbl>, educ_diploma <dbl>,
## #   educ_degree <dbl>, educ_postgraduate <dbl>, iddir_Yes <dbl>,
## #   marital_Married <dbl>, religion_Muslim <dbl>, gender_Male <dbl>,
## #   know_account_Yes <dbl>, wage_self_Yes <dbl>, credit_info_Yes <dbl>,
## #   urban_Urban <dbl>, bank_com_Yes <dbl>
…
evaluate perfromance

predictions_categories <- predict(data_logistic_fit, new_data = data_test)

predictions_categories

## # A tibble: 1,651 × 1
##    .pred_class         
##    <fct>               
##  1 No Access to Finance
##  2 Access to Finance   
##  3 No Access to Finance
##  4 No Access to Finance
##  5 No Access to Finance
##  6 No Access to Finance
##  7 Access to Finance   
##  8 Access to Finance   
##  9 No Access to Finance
## 10 Access to Finance   
## # … with 1,641 more rows

predictions_probabilities <- predict(data_logistic_fit, new_data = data_test, type = 'prob')

predictions_probabilities

## # A tibble: 1,651 × 2
##    `.pred_No Access to Finance` `.pred_Access to Finance`
##                           <dbl>                     <dbl>
##  1                        0.942                    0.0577
##  2                        0.383                    0.617 
##  3                        0.856                    0.144 
##  4                        0.937                    0.0628
##  5                        0.865                    0.135 
##  6                        0.920                    0.0804
##  7                        0.311                    0.689 
##  8                        0.267                    0.733 
##  9                        0.857                    0.143 
## 10                        0.125                    0.875 
## # … with 1,641 more rows

combine together

test_results <- data_test %>% select(finance) %>% 
  bind_cols(predictions_categories) %>% 
  bind_cols(predictions_probabilities)

test_results

## # A tibble: 1,651 × 4
##    finance              .pred_class          `.pred_No Access…` `.pred_Access …`
##    <fct>                <fct>                             <dbl>            <dbl>
##  1 Access to Finance    No Access to Finance              0.942           0.0577
##  2 Access to Finance    Access to Finance                 0.383           0.617 
##  3 No Access to Finance No Access to Finance              0.856           0.144 
##  4 No Access to Finance No Access to Finance              0.937           0.0628
##  5 No Access to Finance No Access to Finance              0.865           0.135 
##  6 No Access to Finance No Access to Finance              0.920           0.0804
##  7 Access to Finance    Access to Finance                 0.311           0.689 
##  8 No Access to Finance Access to Finance                 0.267           0.733 
##  9 No Access to Finance No Access to Finance              0.857           0.143 
## 10 Access to Finance    Access to Finance                 0.125           0.875 
## # … with 1,641 more rows
…
Evaluating Test Set Accuracy

predict(lm_fit, new_data = data_test)

## # A tibble: 1,652 × 1
##    .pred
##    <dbl>
##  1  8.65
##  2  8.65
##  3  9.94
##  4  9.35
##  5  9.67
##  6  8.90
##  7  9.63
##  8  8.85
##  9  9.06
## 10  9.98
## # … with 1,642 more rows

data_test_results <- predict(lm_fit, new_data = data_test) %>% 
  bind_cols(data_test)

# View results
data_test_results

## # A tibble: 1,652 × 21
##    .pred lntot lneduc finance      mobile_own educ  iddir marital religion   age
##    <dbl> <dbl>  <dbl> <fct>        <fct>      <fct> <fct> <fct>   <fct>    <dbl>
##  1  8.65  8.47   5.21 No Access t… No         Non … No    Married Non Mus…    35
##  2  8.65  9.36   0    Access to F… No         Non … No    Married Non Mus…    53
##  3  9.94  9.08   3.54 Access to F… Yes        Prim… No    Non ma… Non Mus…    27
##  4  9.35  9.45   4.54 No Access t… No         Prim… No    Non ma… Non Mus…    36
##  5  9.67  9.90   0    No Access t… No         Non … No    Non ma… Non Mus…    60
##  6  8.90  8.97   0    No Access t… No         Non … No    Married Non Mus…    32
##  7  9.63  9.09   0    No Access t… Yes        Prim… No    Married Non Mus…    36
##  8  8.85  8.46   4.84 No Access t… Yes        Non … No    Married Non Mus…    50
##  9  9.06  8.34   4.98 Access to F… Yes        Prim… No    Married Non Mus…    44
## 10  9.98  9.42   0    No Access t… Yes        Non … No    Non ma… Non Mus…    25
## # … with 1,642 more rows, and 11 more variables: ag2 <dbl>, gender <fct>,
## #   hh_size <dbl>, hh_size2 <dbl>, know_account <fct>, wage_self <fct>,
## #   credit_info <fct>, urban <fct>, bank_com <fct>, educ_com <dbl>, lndis <dbl>
…
nrc_joy <- get_sentiments("nrc") %>% 
  filter(sentiment == "joy")
tidy_books %>%
  filter(book == "Emma") %>%
  inner_join(nrc_joy) %>%
  count(word, sort = TRUE)

## Joining, by = "word"

## # A tibble: 301 × 2
##    word          n
##    <chr>     <int>
##  1 good        359
##  2 friend      166
##  3 hope        143
##  4 happy       125
##  5 love        117
##  6 deal         92
##  7 found        92
##  8 present      89
##  9 kind         82
## 10 happiness    76
## # … with 291 more rows
…
pride_prejudice <- tidy_books %>% 
  filter(book == "Pride & Prejudice")

pride_prejudice

## # A tibble: 122,204 × 4
##    book              linenumber chapter word     
##    <fct>                  <int>   <int> <chr>    
##  1 Pride & Prejudice          1       0 pride    
##  2 Pride & Prejudice          1       0 and      
##  3 Pride & Prejudice          1       0 prejudice
##  4 Pride & Prejudice          3       0 by       
##  5 Pride & Prejudice          3       0 jane     
##  6 Pride & Prejudice          3       0 austen   
##  7 Pride & Prejudice          7       1 chapter  
##  8 Pride & Prejudice          7       1 1        
##  9 Pride & Prejudice         10       1 it       
## 10 Pride & Prejudice         10       1 is       
## # … with 122,194 more rows
…
